{
  "name": "尘落影院",
  "url": "https://v.xuangz.cn/",
  "tihuan": "cnzz.com",
  "User": "空",
  "shouye": "1",
  "fenlei": "电视剧$/whole/2_______0_addtime_#电影$/whole/1_______0_id_#综艺$/whole/4_______0_addtime_#动漫$/whole/3_______0_addtime_#全网资源$/whole/5_______0_addtime_",
  "houzhui": ".html",
  "shifouercijiequ": "0",
  "jiequqian": "空",
  "jiequhou": "空",
  "jiequshuzuqian": "class=\"movie-item-in",
  "jiequshuzuhou": "class=\"item-hover",
  "tupianqian": "src=\"",
  "tupianhou": "\"",
  "biaotiqian": "title=\"",
  "biaotihou": "\"",
  "lianjieqian": "href=\"",
  "lianjiehou": "\"",
  "sousuoqian": "/?c=search&wd=",
  "sousuohou": "",
  "sousuohouzhui": "/show/",
  "ssmoshi": "1",
  "sousuoshifouercijiequ": "0",
  "jspic": "pic",
  "jsname": "name",
  "jsid": "id",
  "ssjiequqian": "空",
  "ssjiequhou": "空",
  "ssjiequshuzuqian": "class=\"movie-item-in",
  "ssjiequshuzuhou": "</div>",
  "sstupianqian": "src=\"",
  "sstupianhou": "\"",
  "ssbiaotiqian": "alt=\"",
  "ssbiaotihou": "\"",
  "sslianjieqian": "href=\"",
  "sslianjiehou": "\"",
  "bfshifouercijiequ": "0",
  "bfjiequqian": "空",
  "bfjiequhou": "空",
  "bfjiequshuzuqian": "class=\"row tv-js-list",
  "bfjiequshuzuhou": "</ul>",
  "zhuangtaiqian": "状态",
  "zhuangtaihou": "</tr>",
  "daoyanqian": "导演",
  "daoyanhou": "</tr>",
  "zhuyanqian": "主演",
  "zhuyanhou": "</i>",
  "juqingqian": "border-radius: 4px",
  "juqinghou": "</span>",
  "bfyshifouercijiequ": "0",
  "bfyjiequqian": "空",
  "bfyjiequhou": "空",
  "bfyjiequshuzuqian": "<div",
  "bfyjiequshuzuhou": "/div>",
  "bfbiaotiqian": "class=\"tv-js-btn\">",
  "bfbiaotihou": "</a>",
  "bflianjieqian": "href=\"",
  "bflianjiehou": "\""
}
